4539211969027403
4024007122029233
4929186031324483
4532230842171300
4716507313096811
5329641074000732
5347844443042959
5557024888972490
5503127441453786
5370739405978184
6011845082161375
6011154538051433
6011231948818005
6011826767274352
6011291123209404
348077268974697
370821873728449
375742074460993
342900975978915
379744908783083
